157
105
190
38
2
14
12
279
97
82
177
99
179
123
40
230
192
3
204
242
37
38
212
187
158
277
113
138
143
170
129
279
218
234
297
258
131
104
51
100
214
113
61
87
181
144
212
27
237
152
244
39
291
48
156
249
111
220
283
121
128
33
241
198
79
73
188
31
158
281
116
166
111
284
86
201
173
239
80
197
57
266
105
203
263
220
80
109
30
143
113
150
32
85
284
195
105
297
201
289
